<?xml version="1.0" encoding="UTF-8"?>
<session version="1.0">
<refactoring comment="Delete resource &apos;capstone&apos;" deleteContents="false" description="Delete resource &apos;capstone&apos;" element1="/capstone" flags="7" id="org.eclipse.ltk.core.refactoring.delete.resources" resources="1" stamp="1501512343514"/>
</session>