<?xml version="1.0" encoding="UTF-8"?>
<session version="1.0">
<refactoring comment="Copy element &apos;java&apos; to &apos;team-charlie-capstone/src/main/java&apos;&#x0A;- Original project: &apos;mvc-controllers-part2-exercises&apos;&#x0A;- Destination element: &apos;team-charlie-capstone/src/main/java&apos;&#x0A;- Original element: &apos;java&apos;" description="Copy folder" destination="=team-charlie-capstone/src\/main\/java" element1="src/main/java" files="0" flags="589830" folders="1" id="org.eclipse.jdt.ui.copy" policy="org.eclipse.jdt.ui.copyResources" stamp="1501517299368" units="0" version="1.0"/>
</session>